…
``` r
# summarize within cities the total number of homicides

hom_df %>% 
  group_by(city_state) %>% 
  summarise(n_obs = n())
```

    ## # A tibble: 51 × 2
    ##    city_state     n_obs
    ##    <chr>          <int>
    ##  1 Albuquerque,NM   378
    ##  2 Atlanta,GA       973
    ##  3 Baltimore,MD    2827
    ##  4 Baton Rouge,LA   424
    ##  5 Birmingham,AL    800
    ##  6 Boston,MA        614
    ##  7 Buffalo,NY       521
    ##  8 Charlotte,NC     687
    ##  9 Chicago,IL      5535
    ## 10 Cincinnati,OH    694
    ## # ℹ 41 more rows

``` r
# summarize within cities the total number of unsolved homicides (those for which the disposition is “Closed without arrest” or “Open/No arrest”).

hom_df %>% 
  filter(disposition == "Closed without arrest" || disposition == "Open/No arrest") %>% 
  group_by(city_state) %>% 
  summarise(n_obs = n())
```

    ## # A tibble: 51 × 2
    ##    city_state     n_obs
    ##    <chr>          <int>
    ##  1 Albuquerque,NM   378
    ##  2 Atlanta,GA       973
    ##  3 Baltimore,MD    2827
    ##  4 Baton Rouge,LA   424
    ##  5 Birmingham,AL    800
    ##  6 Boston,MA        614
    ##  7 Buffalo,NY       521
    ##  8 Charlotte,NC     687
    ##  9 Chicago,IL      5535
    ## 10 Cincinnati,OH    694
    ## # ℹ 41 more rows
…
